[
  {
    "FirstName": "Aparajita",
    "LastName": "Jain",
    "Gender": "F",
    "BirthDate": "24/8/90",
    "EmailId": "aparajita@STC.com",
    "Address": "",
    "PhoneNumber": "1234567890",
    "PassWord": "*******"
  },
  {
    "FirstName": "XYZ",
    "LastName": "moore",
    "Gender": "K",
    "BirthDate": "40/1/00",
    "EmailId": "",
    "Address": "USA",
    "PhoneNumber": "",
    "PassWord": ""
  },
  {
    "FirstName": "ABC",
    "LastName": "wilson",
    "Gender": "D",
    "BirthDate": "06/08/1941",
    "EmailId": "Abc@wilson.com",
    "Address": "",
    "PhoneNumber": "6543213",
    "PassWord": "Password"
  },
  {
    "FirstName": "Mohit",
    "LastName": "jain",
    "Gender": "M",
    "BirthDate": "08/11/1987",
    "EmailId": "",
    "Address": "canada",
    "PhoneNumber": "sdfergher",
    "PassWord": ""
  },
  {
    "FirstName": "Stc",
    "LastName": "website",
    "Gender": "M",
    "BirthDate": "01/04/201",
    "EmailId": "stc@wensite.ca",
    "Address": "India",
    "PhoneNumber": "528",
    "PassWord": "&&&"
  }
]