[
 {
  "FirstName":"Aparajita",
  "LastName":"Jain",
  "Gender":"F",
  "BirthDate":"24/8/90",
  "EmailID":"aparajita@STC.com",
  "Address":"",
  "PhoneNumber":"1236547890",
  "Password":"*******" 
 },
 {
  "FirstName":"XYZ",
  "LastName":"moore",
  "Gender":"K",
  "BirthDate":"40/13/2000",
  "EmailID":"",
  "Address":"USA",
  "PhoneNumber":"",
  "Password":""
 },
 {
  "FirstName":"ABC",
  "LastName":"wilson",
  "Gender":"D",
  "BirthDate":"06/08/1941",
  "EmailID":"Abc@wilson.com",
  "Address":"",
  "PhoneNumber":"659874123",
  "Password":"Password"
 }
]
